it/unito/sas/MainSceneController.class
it/unito/sas/businesslogic/manager/UserManager.class
it/unito/sas/businesslogic/menu/Section.class
it/unito/sas/businesslogic/menu/Menu.class
it/unito/sas/businesslogic/User$Role.class
it/unito/sas/businesslogic/Recipe.class
it/unito/sas/persistence/DataManager.class
it/unito/sas/Main.class
it/unito/sas/ui/menu/MenuEditListener.class
it/unito/sas/businesslogic/menu/BaseEventReceiver.class
it/unito/sas/businesslogic/summarySheet/Task.class
it/unito/sas/businesslogic/summarySheet/SummarySheet.class
it/unito/sas/ui/summarysheet/SummarySheetListController.class
it/unito/sas/businesslogic/menu/MenuItem.class
it/unito/sas/businesslogic/manager/RecipeManager.class
it/unito/sas/businesslogic/Event.class
it/unito/sas/businesslogic/manager/EventManager.class
it/unito/sas/businesslogic/UseCaseLogicException.class
it/unito/sas/businesslogic/manager/SummarySheetManager.class
it/unito/sas/businesslogic/manager/MenuManager$1.class
it/unito/sas/ui/menu/MenuListController.class
it/unito/sas/ui/menu/MenuEditController.class
it/unito/sas/businesslogic/event_receiver/SummarySheetEventReceiver.class
it/unito/sas/businesslogic/User.class
it/unito/sas/businesslogic/manager/CateringAppManager.class
it/unito/sas/persistence/DataManager$1.class
it/unito/sas/ui/menu/MainController.class
it/unito/sas/businesslogic/event_receiver/MenuEventReceiver.class
it/unito/sas/businesslogic/Recipe$Type.class
it/unito/sas/businesslogic/menu/MenuException.class
it/unito/sas/businesslogic/manager/MenuManager.class
