/home/alexprogrammer/Scrivania/sviluppo-applicazioni-software/sas/src/main/java/it/unito/sas/Main.java
/home/alexprogrammer/Scrivania/sviluppo-applicazioni-software/sas/src/main/java/it/unito/sas/businesslogic/UseCaseLogicException.java
/home/alexprogrammer/Scrivania/sviluppo-applicazioni-software/sas/src/main/java/it/unito/sas/businesslogic/manager/CateringAppManager.java
/home/alexprogrammer/Scrivania/sviluppo-applicazioni-software/sas/src/main/java/it/unito/sas/businesslogic/User.java
/home/alexprogrammer/Scrivania/sviluppo-applicazioni-software/sas/src/main/java/it/unito/sas/businesslogic/menu/Section.java
/home/alexprogrammer/Scrivania/sviluppo-applicazioni-software/sas/src/main/java/it/unito/sas/businesslogic/manager/SummarySheetManager.java
/home/alexprogrammer/Scrivania/sviluppo-applicazioni-software/sas/src/main/java/it/unito/sas/businesslogic/event_receiver/SummarySheetEventReceiver.java
/home/alexprogrammer/Scrivania/sviluppo-applicazioni-software/sas/src/main/java/it/unito/sas/businesslogic/menu/MenuItem.java
/home/alexprogrammer/Scrivania/sviluppo-applicazioni-software/sas/src/main/java/it/unito/sas/businesslogic/event_receiver/MenuEventReceiver.java
/home/alexprogrammer/Scrivania/sviluppo-applicazioni-software/sas/src/main/java/it/unito/sas/businesslogic/menu/BaseEventReceiver.java
/home/alexprogrammer/Scrivania/sviluppo-applicazioni-software/sas/src/main/java/it/unito/sas/ui/menu/MenuListController.java
/home/alexprogrammer/Scrivania/sviluppo-applicazioni-software/sas/src/main/java/it/unito/sas/businesslogic/Event.java
/home/alexprogrammer/Scrivania/sviluppo-applicazioni-software/sas/src/main/java/it/unito/sas/businesslogic/manager/RecipeManager.java
/home/alexprogrammer/Scrivania/sviluppo-applicazioni-software/sas/src/main/java/it/unito/sas/ui/menu/MenuEditController.java
/home/alexprogrammer/Scrivania/sviluppo-applicazioni-software/sas/src/main/java/it/unito/sas/ui/menu/MainController.java
/home/alexprogrammer/Scrivania/sviluppo-applicazioni-software/sas/src/main/java/it/unito/sas/ui/summarysheet/SummarySheetListController.java
/home/alexprogrammer/Scrivania/sviluppo-applicazioni-software/sas/src/main/java/it/unito/sas/businesslogic/summarySheet/SummarySheet.java
/home/alexprogrammer/Scrivania/sviluppo-applicazioni-software/sas/src/main/java/it/unito/sas/MainSceneController.java
/home/alexprogrammer/Scrivania/sviluppo-applicazioni-software/sas/src/main/java/it/unito/sas/businesslogic/manager/MenuManager.java
/home/alexprogrammer/Scrivania/sviluppo-applicazioni-software/sas/src/main/java/it/unito/sas/businesslogic/manager/UserManager.java
/home/alexprogrammer/Scrivania/sviluppo-applicazioni-software/sas/src/main/java/it/unito/sas/businesslogic/Recipe.java
/home/alexprogrammer/Scrivania/sviluppo-applicazioni-software/sas/src/main/java/it/unito/sas/persistence/DataManager.java
/home/alexprogrammer/Scrivania/sviluppo-applicazioni-software/sas/src/main/java/it/unito/sas/businesslogic/menu/Menu.java
/home/alexprogrammer/Scrivania/sviluppo-applicazioni-software/sas/src/main/java/it/unito/sas/businesslogic/summarySheet/Task.java
/home/alexprogrammer/Scrivania/sviluppo-applicazioni-software/sas/src/main/java/it/unito/sas/ui/menu/MenuEditListener.java
/home/alexprogrammer/Scrivania/sviluppo-applicazioni-software/sas/src/main/java/it/unito/sas/businesslogic/menu/MenuException.java
/home/alexprogrammer/Scrivania/sviluppo-applicazioni-software/sas/src/main/java/it/unito/sas/businesslogic/manager/EventManager.java
