\relax 
\@writefile{toc}{\contentsline {section}{\numberline {1}generaFoglioRiepilogativo(evento)}{2}}
\@writefile{toc}{\contentsline {section}{\numberline {2}scegliFoglioRiepilogativo(evento)}{2}}
\@writefile{toc}{\contentsline {section}{\numberline {3}aggiungiPreparazione(foglioRiepilogativo, preparato)}{2}}
\@writefile{toc}{\contentsline {section}{\numberline {4}ordinaCompiti()}{2}}
\@writefile{toc}{\contentsline {section}{\numberline {5}richiediTabelloneDeiTurni()}{2}}
\@writefile{toc}{\contentsline {section}{\numberline {6}assegna(preparazione, turno?, cuoco?, porzione?, tempoStimato?)}{2}}
\@writefile{toc}{\contentsline {section}{\numberline {7}modifica(compito, preparato?,turno? cuoco? porzione? tempoStimato?)}{3}}
\@writefile{toc}{\contentsline {section}{\numberline {8}elimina(compito)}{3}}
\@writefile{toc}{\contentsline {section}{\numberline {9}salvaFoglioRiepilogativo ?? dobbiamo chiedere se questa operazione andava bene}{3}}
